[
  {
    "Id": "PER-0008",
    "FirstName": "M",
    "LastName": "Test123",
    "Email": "test123@perficient.com",
    "password": "123",
    "Role": ["Mentor"],
    "Goals": []
  },
  {
    "Id": "PER-0009",
    "FirstName": "M",
    "LastName": "S",
    "Email": "1234@perficient.com",
    "Role": ["Mentor"],
    "Goals": []
  },
  {
    "Id": "PER-0010",
    "FirstName": "Mike",
    "LastName": "S",
    "Email": "12345@perficient.com",
    "Role": ["Mentor"],
    "Goals": []
  },
  {
    "Id": "PER-0011",
    "FirstName": "Mike",
    "LastName": "Mike123",
    "Email": "234@perficient.com",
    "Role": ["Mentor"],
    "Goals": []
  },
  {
    "Id": "PER-0014",
    "FirstName": "sad",
    "LastName": "asd",
    "Email": "asd@perficient.com",
    "Role": ["Mentor"],
    "Goals": []
  },
  {
    "FirstName": "Carl",
    "LastName": "Thress",
    "Email": "carl@jflkadjf.dfl",
    "Password": "dfssfsf",
    "Role": "Mentor"
  },
  {
    "FirstName": "Carl",
    "LastName": "Thress",
    "Email": "carl.thress@perficient.com",
    "Password": "123456",
    "Role": ["Mentor", "Mentee"]
  },
  {
    "FirstName": "Carl",
    "LastName": "Thress",
    "Email": "carl@test.com",
    "Password": "sdfadsfadsad",
    "Role": ["Mentor", "Mentee"],
    "Goals": [
      {
        "timeframe": "mid",
        "goal": "testing"
      }
    ]
  }
]
